…
news_data <- news_data %>% filter(days=="Friday") %>% select(-url, -timedelta)
news_data
```

    ## Registered S3 method overwritten by 'cli':
    ##   method     from
    ##   print.tree tree

    ## # A tibble: 5,701 x 60
    ##    n_tokens_title n_tokens_content n_unique_tokens n_non_stop_words
    ##             <dbl>            <dbl>           <dbl>            <dbl>
    ##  1             12              698           0.499             1.00
    ##  2             13              310           0.612             1.00
    ##  3              8              461           0.550             1.00
    ##  4              9              318           0.579             1.00
    ##  5             10              294           0.703             1.00
    ##  6              9              930           0.442             1.00
    ##  7             10              682           0.487             1.00
    ##  8             10              349           0.542             1.00
    ##  9              5             1302           0.414             1.00
    ## 10             13              220           0.603             1.00
    ## # ... with 5,691 more rows, and 56 more variables:
    ## #   n_non_stop_unique_tokens <dbl>, num_hrefs <dbl>, num_self_hrefs <dbl>,
    ## #   num_imgs <dbl>, num_videos <dbl>, average_token_length <dbl>,
    ## #   num_keywords <dbl>, data_channel_is_lifestyle <dbl>,
    ## #   data_channel_is_entertainment <dbl>, data_channel_is_bus <dbl>,
    ## #   data_channel_is_socmed <dbl>, data_channel_is_tech <dbl>,
    ## #   data_channel_is_world <dbl>, kw_min_min <dbl>, kw_max_min <dbl>,
    ## #   kw_avg_min <dbl>, kw_min_max <dbl>, kw_max_max <dbl>, kw_avg_max <dbl>,
    ## #   kw_min_avg <dbl>, kw_max_avg <dbl>, kw_avg_avg <dbl>,
…
